…
```r
Auto
```

```
## # A tibble: 392 x 9
##     mpg cylinders displacement horsepower weight acceleration  year origin
##   <dbl>     <int>        <dbl>      <int>  <dbl>        <dbl> <int>  <int>
## 1    18         8          307        130   3504         12      70      1
## 2    15         8          350        165   3693         11.5    70      1
## 3    18         8          318        150   3436         11      70      1
## 4    16         8          304        150   3433         12      70      1
## 5    17         8          302        140   3449         10.5    70      1
## 6    15         8          429        198   4341         10      70      1
## # ... with 386 more rows, and 1 more variable: name <chr>
```
…
<img src="02-stat-learn_files/figure-html/aes-1.png" width="70%" style="display: block; margin: auto;" />

Since `cylinders` is essentially a categorical variable (not enough unique values to be considered continuous), we could store it as a qualitative variable using `as.factor()` and then visualize this data using a **boxplot**. To convert a column in-place, we use `mutate()` from the `dplyr` package:


```r
# convert cylinders to a factor variable
Auto <- mutate(.data = Auto,
               cylinders = as.factor(cylinders))
Auto
```

```
## # A tibble: 392 x 9
##     mpg cylinders displacement horsepower weight acceleration  year origin
##   <dbl> <fct>            <dbl>      <int>  <dbl>        <dbl> <int>  <int>
## 1    18 8                  307        130   3504         12      70      1
## 2    15 8                  350        165   3693         11.5    70      1
## 3    18 8                  318        150   3436         11      70      1
## 4    16 8                  304        150   3433         12      70      1
## 5    17 8                  302        140   3449         10.5    70      1
## 6    15 8                  429        198   4341         10      70      1
## # ... with 386 more rows, and 1 more variable: name <chr>
```
…
