…
### Libraries

`ISLR` contains several datasets associated with **An Introduction to Statistical Learning**. `MASS` also contains a large number of data sets and functions, one of which is used in this lab. However `MASS` also contains a function called `filter()`, which would conflict with `filter()` from `dplyr`. To avoid this conflict, we can use `data()` to directly access the data frame without loading the entire `MASS` package. We then convert this data frame to a tibble using `as_tibble()` to ensure proper formatting and appearance.


```r
library(ISLR)
data(Boston, package = "MASS")

Boston <- as_tibble(Boston)
Boston
```

```
## # A tibble: 506 x 14
##      crim    zn indus  chas   nox    rm   age   dis   rad   tax ptratio
## *   <dbl> <dbl> <dbl> <int> <dbl> <dbl> <dbl> <dbl> <int> <dbl>   <dbl>
## 1 0.00632    18  2.31     0 0.538  6.58  65.2  4.09     1   296    15.3
## 2 0.0273      0  7.07     0 0.469  6.42  78.9  4.97     2   242    17.8
## 3 0.0273      0  7.07     0 0.469  7.18  61.1  4.97     2   242    17.8
## 4 0.0324      0  2.18     0 0.458  7.00  45.8  6.06     3   222    18.7
## 5 0.0690      0  2.18     0 0.458  7.15  54.2  6.06     3   222    18.7
## 6 0.0298      0  2.18     0 0.458  6.43  58.7  6.06     3   222    18.7
## # ... with 500 more rows, and 3 more variables: black <dbl>, lstat <dbl>,
## #   medv <dbl>
```
…
`augment()` returns a data frame with one row per observation from the original dataset and adds information such as fitted values, residuals, etc.


```r
augment(lm_fit) %>%
  as_tibble()
```

```
## # A tibble: 506 x 9
##    medv lstat .fitted .se.fit .resid    .hat .sigma   .cooksd .std.resid
##   <dbl> <dbl>   <dbl>   <dbl>  <dbl>   <dbl>  <dbl>     <dbl>      <dbl>
## 1  24    4.98    29.8   0.406 -5.82  0.00426   6.22 0.00189       -0.939
## 2  21.6  9.14    25.9   0.308 -4.27  0.00246   6.22 0.000582      -0.688
## 3  34.7  4.03    30.7   0.433  3.97  0.00486   6.22 0.00100        0.641
## 4  33.4  2.94    31.8   0.467  1.64  0.00564   6.22 0.000198       0.264
## 5  36.2  5.33    29.5   0.396  6.71  0.00406   6.21 0.00238        1.08 
## 6  28.7  5.21    29.6   0.399 -0.904 0.00413   6.22 0.0000440     -0.146
## # ... with 500 more rows
```
…
### Qualitative predictors

Examine the `CarSeats` data in the `ISLR` library.


```r
as_tibble(Carseats)
```

```
## # A tibble: 400 x 11
##   Sales CompPrice Income Advertising Population Price ShelveLoc   Age
## * <dbl>     <dbl>  <dbl>       <dbl>      <dbl> <dbl> <fct>     <dbl>
## 1  9.5        138     73          11        276   120 Bad          42
## 2 11.2        111     48          16        260    83 Good         65
## 3 10.1        113     35          10        269    80 Medium       59
## 4  7.4        117    100           4        466    97 Medium       55
## 5  4.15       141     64           3        340   128 Bad          38
## 6 10.8        124    113          13        501    72 Bad          78
## # ... with 394 more rows, and 3 more variables: Education <dbl>,
## #   Urban <fct>, US <fct>
```
…
