…
### The stock market data

Load the `SMarket` data from `ISLR`.


```r
library(ISLR)

Smarket <- as_tibble(Smarket)
Smarket
```

```
## # A tibble: 1,250 x 9
##    Year   Lag1   Lag2   Lag3   Lag4   Lag5 Volume  Today Direction
## * <dbl>  <dbl>  <dbl>  <dbl>  <dbl>  <dbl>  <dbl>  <dbl> <fct>    
## 1  2001  0.381 -0.192 -2.62  -1.06   5.01    1.19  0.959 Up       
## 2  2001  0.959  0.381 -0.192 -2.62  -1.06    1.30  1.03  Up       
## 3  2001  1.03   0.959  0.381 -0.192 -2.62    1.41 -0.623 Down     
## 4  2001 -0.623  1.03   0.959  0.381 -0.192   1.28  0.614 Up       
## 5  2001  0.614 -0.623  1.03   0.959  0.381   1.21  0.213 Up       
## 6  2001  0.213  0.614 -0.623  1.03   0.959   1.35  1.39  Up       
## # ... with 1,244 more rows
```
…
```
##   null.deviance df.null logLik  AIC  BIC deviance df.residual
## 1          1731    1249   -864 1742 1778     1728        1243
```

To extract predicted probabilities for each observation (that is, in the form $P(Y = 1|X)$), we use `augment()` with the argument `type.predict = "response"`; if we omit that argument, the predicted values are generated in the log-odds form.


```r
augment(glm_fit, type.predict = "response") %>%
  as_tibble()
```

```
## # A tibble: 1,250 x 14
##   Direction   Lag1   Lag2   Lag3   Lag4   Lag5 Volume .fitted .se.fit
##   <fct>      <dbl>  <dbl>  <dbl>  <dbl>  <dbl>  <dbl>   <dbl>   <dbl>
## 1 Up         0.381 -0.192 -2.62  -1.06   5.01    1.19   0.507  0.0732
## 2 Up         0.959  0.381 -0.192 -2.62  -1.06    1.30   0.481  0.0415
## 3 Down       1.03   0.959  0.381 -0.192 -2.62    1.41   0.481  0.0401
## 4 Up        -0.623  1.03   0.959  0.381 -0.192   1.28   0.515  0.0253
## 5 Up         0.614 -0.623  1.03   0.959  0.381   1.21   0.511  0.0275
## 6 Up         0.213  0.614 -0.623  1.03   0.959   1.35   0.507  0.0255
## # ... with 1,244 more rows, and 5 more variables: .resid <dbl>,
## #   .hat <dbl>, .sigma <dbl>, .cooksd <dbl>, .std.resid <dbl>
```

To convert these predicted probabilities to actual predictions using a $.5$ threshold, we create a new column using `mutate()` which checks the `.fitted` value and returns `Up` if the probability is greater than or equal to $.5$ and `Down` if the probability is less than $.5$.


```r
augment(glm_fit, type.predict = "response") %>%
  as_tibble() %>%
  mutate(.predict = ifelse(.fitted >= .5, "Up", "Down"))
```

```
## # A tibble: 1,250 x 15
##   Direction   Lag1   Lag2   Lag3   Lag4   Lag5 Volume .fitted .se.fit
##   <fct>      <dbl>  <dbl>  <dbl>  <dbl>  <dbl>  <dbl>   <dbl>   <dbl>
## 1 Up         0.381 -0.192 -2.62  -1.06   5.01    1.19   0.507  0.0732
## 2 Up         0.959  0.381 -0.192 -2.62  -1.06    1.30   0.481  0.0415
## 3 Down       1.03   0.959  0.381 -0.192 -2.62    1.41   0.481  0.0401
## 4 Up        -0.623  1.03   0.959  0.381 -0.192   1.28   0.515  0.0253
## 5 Up         0.614 -0.623  1.03   0.959  0.381   1.21   0.511  0.0275
## 6 Up         0.213  0.614 -0.623  1.03   0.959   1.35   0.507  0.0255
## # ... with 1,244 more rows, and 6 more variables: .resid <dbl>,
## #   .hat <dbl>, .sigma <dbl>, .cooksd <dbl>, .std.resid <dbl>,
## #   .predict <chr>
```
…
```
## [1] 0.478
```

This is the **training error rate** (portion of observations where the actual outcome does not match the predicted outcome). To calculate the **test error rate**, we hold back a portion of the data to evaluate the model's effectiveness. Let's split the data into years 2001-04 and 2005:


```r
Smarket_0104 <- filter(Smarket, Year < 2005)
Smarket_05 <- filter(Smarket, Year == 2005)
Smarket_0104
```

```
## # A tibble: 998 x 9
##    Year   Lag1   Lag2   Lag3   Lag4   Lag5 Volume  Today Direction
##   <dbl>  <dbl>  <dbl>  <dbl>  <dbl>  <dbl>  <dbl>  <dbl> <fct>    
## 1  2001  0.381 -0.192 -2.62  -1.06   5.01    1.19  0.959 Up       
## 2  2001  0.959  0.381 -0.192 -2.62  -1.06    1.30  1.03  Up       
## 3  2001  1.03   0.959  0.381 -0.192 -2.62    1.41 -0.623 Down     
## 4  2001 -0.623  1.03   0.959  0.381 -0.192   1.28  0.614 Up       
## 5  2001  0.614 -0.623  1.03   0.959  0.381   1.21  0.213 Up       
## 6  2001  0.213  0.614 -0.623  1.03   0.959   1.35  1.39  Up       
## # ... with 992 more rows
```

```r
Smarket_05
```

```
## # A tibble: 252 x 9
##    Year   Lag1   Lag2   Lag3   Lag4   Lag5 Volume  Today Direction
##   <dbl>  <dbl>  <dbl>  <dbl>  <dbl>  <dbl>  <dbl>  <dbl> <fct>    
## 1  2005 -0.134  0.008 -0.007  0.715 -0.431  0.787 -0.812 Down     
## 2  2005 -0.812 -0.134  0.008 -0.007  0.715  1.51  -1.17  Down     
## 3  2005 -1.17  -0.812 -0.134  0.008 -0.007  1.72  -0.363 Down     
## 4  2005 -0.363 -1.17  -0.812 -0.134  0.008  1.74   0.351 Up       
## 5  2005  0.351 -0.363 -1.17  -0.812 -0.134  1.57  -0.143 Down     
## 6  2005 -0.143  0.351 -0.363 -1.17  -0.812  1.48   0.342 Up       
## # ... with 246 more rows
```
…
### An application to Caravan insurance data

Let's apply KNN to the `Caravan` data set from `ISLR`. The response variable is `Purchase` which indicates whether or not a given individual purchases a caravan insurance policy.


```r
Caravan <- as_tibble(Caravan)
Caravan
```

```
## # A tibble: 5,822 x 86
##   MOSTYPE MAANTHUI MGEMOMV MGEMLEEF MOSHOOFD MGODRK MGODPR MGODOV MGODGE
## *   <dbl>    <dbl>   <dbl>    <dbl>    <dbl>  <dbl>  <dbl>  <dbl>  <dbl>
## 1      33        1       3        2        8      0      5      1      3
## 2      37        1       2        2        8      1      4      1      4
## 3      37        1       2        2        8      0      4      2      4
## 4       9        1       3        3        3      2      3      2      4
## 5      40        1       4        2       10      1      4      1      4
## 6      23        1       2        1        5      0      5      0      5
## # ... with 5,816 more rows, and 77 more variables: MRELGE <dbl>,
## #   MRELSA <dbl>, MRELOV <dbl>, MFALLEEN <dbl>, MFGEKIND <dbl>,
## #   MFWEKIND <dbl>, MOPLHOOG <dbl>, MOPLMIDD <dbl>, MOPLLAAG <dbl>,
## #   MBERHOOG <dbl>, MBERZELF <dbl>, MBERBOER <dbl>, MBERMIDD <dbl>,
## #   MBERARBG <dbl>, MBERARBO <dbl>, MSKA <dbl>, MSKB1 <dbl>, MSKB2 <dbl>,
## #   MSKC <dbl>, MSKD <dbl>, MHHUUR <dbl>, MHKOOP <dbl>, MAUT1 <dbl>,
## #   MAUT2 <dbl>, MAUT0 <dbl>, MZFONDS <dbl>, MZPART <dbl>, MINKM30 <dbl>,
## #   MINK3045 <dbl>, MINK4575 <dbl>, MINK7512 <dbl>, MINK123M <dbl>,
## #   MINKGEM <dbl>, MKOOPKLA <dbl>, PWAPART <dbl>, PWABEDR <dbl>,
…
